<?xml version="1.0" encoding="UTF-8"?>
<svg height="128px" viewBox="0 0 128 128" width="128px" xmlns="http://www.w3.org/2000/svg" xmlns:xlink="http://www.w3.org/1999/xlink">
    <defs>
        <linearGradient id="a" gradientTransform="matrix(0.232143 0 0 0.218145 -8.56688 214.032959)" gradientUnits="userSpaceOnUse" x1="88.595886" x2="536.595886" y1="-449.394012" y2="-449.394012">
            <stop offset="0" stop-color="#63452c"/>
            <stop offset="0.0384615" stop-color="#b5835a"/>
            <stop offset="0.0768555" stop-color="#865e3c"/>
            <stop offset="0.923077" stop-color="#865e3c"/>
            <stop offset="0.961538" stop-color="#b5835a"/>
            <stop offset="1" stop-color="#63452c"/>
        </linearGradient>
        <linearGradient id="b" gradientUnits="userSpaceOnUse" x1="12" x2="116" y1="26.841797" y2="26.841797">
            <stop offset="0" stop-color="#b5835a"/>
            <stop offset="0.0384615" stop-color="#cdab8f"/>
            <stop offset="0.0768555" stop-color="#b5835a"/>
            <stop offset="0.923077" stop-color="#b5835a"/>
            <stop offset="0.961538" stop-color="#cdab8f"/>
            <stop offset="1" stop-color="#b5835a"/>
        </linearGradient>
        <linearGradient id="c" gradientUnits="userSpaceOnUse" x1="105.025421" x2="22.974651" y1="74.783615" y2="74.783615">
            <stop offset="0" stop-color="#613583"/>
            <stop offset="0.4" stop-color="#9141ac"/>
            <stop offset="1" stop-color="#d13a33"/>
        </linearGradient>
        <linearGradient id="d" gradientTransform="matrix(1 0 0 1.066038 -0.00003 -190.701721)" gradientUnits="userSpaceOnUse" x1="64.000031" x2="64.000031" y1="255.610275" y2="266.07666">
            <stop offset="0" stop-color="#ffffff" stop-opacity="0"/>
            <stop offset="0.531891" stop-color="#ffffff" stop-opacity="0.184314"/>
            <stop offset="1" stop-color="#ffffff" stop-opacity="0"/>
        </linearGradient>
        <filter id="e" height="100%" width="100%" x="0%" y="0%">
            <feColorMatrix in="SourceGraphic" type="matrix" values="0 0 0 0 1 0 0 0 0 1 0 0 0 0 1 0 0 0 1 0"/>
        </filter>
        <mask id="f">
            <g filter="url(#e)">
                <rect fill-opacity="0.199911" height="128" width="128"/>
            </g>
        </mask>
        <mask id="g">
            <g filter="url(#e)">
                <rect fill-opacity="0.199911" height="128" width="128"/>
            </g>
        </mask>
        <mask id="h">
            <g filter="url(#e)">
                <rect fill-opacity="0.199911" height="128" width="128"/>
            </g>
        </mask>
        <mask id="i">
            <g filter="url(#e)">
                <rect fill-opacity="0.199911" height="128" width="128"/>
            </g>
        </mask>
        <mask id="j">
            <g filter="url(#e)">
                <rect fill-opacity="0.199911" height="128" width="128"/>
            </g>
        </mask>
        <mask id="k">
            <g filter="url(#e)">
                <rect fill-opacity="0.199911" height="128" width="128"/>
            </g>
        </mask>
        <linearGradient id="l" gradientTransform="matrix(1.040799 0 0 1.401544 -3.960481 -271.496239)" gradientUnits="userSpaceOnUse" x1="19.056639" x2="111.536263" y1="239.376099" y2="239.376099">
            <stop offset="0" stop-color="#5e5c64"/>
            <stop offset="0.621265" stop-color="#9a9996"/>
            <stop offset="1" stop-color="#5e5c64"/>
        </linearGradient>
        <linearGradient id="m" gradientTransform="matrix(1.040799 0 0 0.700772 -3.960481 -105.412521)" gradientUnits="userSpaceOnUse" x1="19.056639" x2="111.536263" y1="239.376099" y2="239.376099">
            <stop offset="0" stop-color="#9a9996"/>
            <stop offset="0.673382" stop-color="#c0bfbc"/>
            <stop offset="1" stop-color="#77767b"/>
        </linearGradient>
        <mask id="n">
            <g filter="url(#e)">
                <rect fill-opacity="0.199911" height="128" width="128"/>
            </g>
        </mask>
        <clipPath id="o">
            <rect height="152" width="192"/>
        </clipPath>
        <g id="p" clip-path="url(#o)">
            <path d="m 59 60 c 0 1.5 -0.371094 2.839844 -0.867188 3.695312 c -0.496093 0.847657 -0.976562 1.09375 -1.289062 1.09375 v 3 c 1.707031 0 3.054688 -1.164062 3.882812 -2.589843 c 0.828126 -1.421875 1.273438 -3.226563 1.273438 -5.199219 z m 4.566406 0 c 0 1.972656 0.445313 3.777344 1.273438 5.199219 c 0.828125 1.425781 2.175781 2.589843 3.878906 2.589843 v -3 c -0.308594 0 -0.789062 -0.246093 -1.285156 -1.09375 c -0.496094 -0.855468 -0.867188 -2.195312 -0.867188 -3.695312 z m -6.722656 8.960938 v 3 c 0.3125 0 0.792969 0.246093 1.289062 1.097656 c 0.496094 0.851562 0.867188 2.191406 0.867188 3.691406 h 3 c 0 -1.96875 -0.445312 -3.773438 -1.273438 -5.199219 c -0.828124 -1.425781 -2.175781 -2.589843 -3.882812 -2.589843 z m 11.875 0 c -1.703125 0 -3.050781 1.164062 -3.878906 2.589843 s -1.273438 3.230469 -1.273438 5.199219 h 3 c 0 -1.5 0.371094 -2.839844 0.867188 -3.691406 c 0.496094 -0.851563 0.976562 -1.097656 1.285156 -1.097656 z m 0 0"/>
        </g>
        <mask id="q">
            <g filter="url(#e)">
                <rect fill-opacity="0.199911" height="128" width="128"/>
            </g>
        </mask>
        <clipPath id="r">
            <rect height="152" width="192"/>
        </clipPath>
        <g id="s" clip-path="url(#r)">
            <path d="m 98.234375 60 c 0 1.5 -0.371094 2.839844 -0.867187 3.695312 c -0.492188 0.847657 -0.972657 1.09375 -1.285157 1.09375 v 3 c 1.707031 0 3.050781 -1.164062 3.878907 -2.589843 c 0.828124 -1.421875 1.273437 -3.226563 1.273437 -5.199219 z m 4.566406 0 c 0 1.972656 0.445313 3.777344 1.273438 5.199219 c 0.828125 1.425781 2.175781 2.589843 3.882812 2.589843 v -3 c -0.3125 0 -0.792969 -0.246093 -1.289062 -1.09375 c -0.492188 -0.855468 -0.867188 -2.195312 -0.867188 -3.695312 z m -6.71875 8.960938 v 3 c 0.3125 0 0.792969 0.246093 1.285157 1.097656 c 0.496093 0.851562 0.867187 2.191406 0.867187 3.691406 h 3 c 0 -1.96875 -0.445313 -3.773438 -1.273437 -5.199219 c -0.828126 -1.425781 -2.171876 -2.589843 -3.878907 -2.589843 z m 11.875 0 c -1.707031 0 -3.054687 1.164062 -3.882812 2.589843 s -1.273438 3.230469 -1.273438 5.199219 h 3 c 0 -1.5 0.375 -2.839844 0.867188 -3.691406 c 0.496093 -0.851563 0.976562 -1.097656 1.289062 -1.097656 z m 0 0"/>
        </g>
        <mask id="t">
            <g filter="url(#e)">
                <rect fill-opacity="0.199911" height="128" width="128"/>
            </g>
        </mask>
        <clipPath id="u">
            <rect height="152" width="192"/>
        </clipPath>
        <g id="v" clip-path="url(#u)">
            <path d="m 39.433594 79.25 c 0 1.5 -0.371094 2.839844 -0.867188 3.691406 c -0.496094 0.851563 -0.976562 1.097656 -1.289062 1.097656 v 3 c 1.707031 0 3.054687 -1.164062 3.882812 -2.589843 s 1.273438 -3.230469 1.273438 -5.199219 z m 4.566406 0 c 0 1.96875 0.445312 3.773438 1.273438 5.199219 c 0.828124 1.425781 2.175781 2.589843 3.878906 2.589843 v -3 c -0.308594 0 -0.789063 -0.246093 -1.285156 -1.097656 c -0.496094 -0.851562 -0.867188 -2.191406 -0.867188 -3.691406 z m -6.722656 8.960938 v 3 c 0.3125 0 0.792968 0.246093 1.289062 1.09375 c 0.496094 0.855468 0.867188 2.195312 0.867188 3.695312 h 3 c 0 -1.972656 -0.445313 -3.777344 -1.273438 -5.199219 c -0.828125 -1.425781 -2.175781 -2.589843 -3.882812 -2.589843 z m 11.875 0 c -1.703125 0 -3.050782 1.164062 -3.878906 2.589843 c -0.828126 1.421875 -1.273438 3.226563 -1.273438 5.199219 h 3 c 0 -1.5 0.371094 -2.839844 0.867188 -3.695312 c 0.496093 -0.847657 0.976562 -1.09375 1.285156 -1.09375 z m 0 0"/>
        </g>
        <mask id="w">
            <g filter="url(#e)">
                <rect fill-opacity="0.199911" height="128" width="128"/>
            </g>
        </mask>
        <clipPath id="x">
            <rect height="152" width="192"/>
        </clipPath>
        <g id="y" clip-path="url(#x)">
            <path d="m 78.667969 79.15625 c 0 1.503906 -0.371094 2.84375 -0.867188 3.695312 c -0.492187 0.851563 -0.972656 1.09375 -1.285156 1.09375 v 3 c 1.707031 0 3.050781 -1.164062 3.878906 -2.585937 c 0.828125 -1.425781 1.273438 -3.230469 1.273438 -5.203125 z m 4.566406 0 c 0 1.972656 0.445313 3.777344 1.273437 5.203125 c 0.828126 1.421875 2.175782 2.585937 3.882813 2.585937 v -3 c -0.3125 0 -0.792969 -0.242187 -1.289063 -1.09375 c -0.492187 -0.851562 -0.867187 -2.191406 -0.867187 -3.695312 z m -6.71875 8.964844 v 3 c 0.3125 0 0.792969 0.242187 1.285156 1.09375 c 0.496094 0.851562 0.867188 2.191406 0.867188 3.695312 h 3 c 0 -1.972656 -0.445313 -3.777344 -1.273438 -5.203125 s -2.171875 -2.585937 -3.878906 -2.585937 z m 11.875 0 c -1.707031 0 -3.054687 1.160156 -3.882813 2.585937 c -0.828124 1.425781 -1.273437 3.230469 -1.273437 5.203125 h 3 c 0 -1.503906 0.375 -2.84375 0.867187 -3.695312 c 0.496094 -0.851563 0.976563 -1.09375 1.289063 -1.09375 z m 0 0"/>
        </g>
        <mask id="z">
            <g filter="url(#e)">
                <rect fill-opacity="0.199911" height="128" width="128"/>
            </g>
        </mask>
        <clipPath id="A">
            <rect height="152" width="192"/>
        </clipPath>
        <g id="B" clip-path="url(#A)">
            <path d="m 58 99 c 0 1.5 -0.371094 2.839844 -0.867188 3.695312 c -0.496093 0.847657 -0.976562 1.09375 -1.289062 1.09375 v 3 c 1.707031 0 3.054688 -1.164062 3.882812 -2.589843 c 0.828126 -1.421875 1.273438 -3.226563 1.273438 -5.199219 z m 4.566406 0 c 0 1.972656 0.445313 3.777344 1.273438 5.199219 c 0.828125 1.425781 2.175781 2.589843 3.878906 2.589843 v -3 c -0.308594 0 -0.789062 -0.246093 -1.285156 -1.09375 c -0.496094 -0.855468 -0.867188 -2.195312 -0.867188 -3.695312 z m -6.722656 8.960938 v 3 c 0.3125 0 0.792969 0.246093 1.289062 1.097656 c 0.496094 0.851562 0.867188 2.191406 0.867188 3.691406 h 3 c 0 -1.96875 -0.445312 -3.773438 -1.273438 -5.199219 c -0.828124 -1.425781 -2.175781 -2.589843 -3.882812 -2.589843 z m 11.875 0 c -1.703125 0 -3.050781 1.164062 -3.878906 2.589843 s -1.273438 3.230469 -1.273438 5.199219 h 3 c 0 -1.5 0.371094 -2.839844 0.867188 -3.691406 c 0.496094 -0.851563 0.976562 -1.097656 1.285156 -1.097656 z m 0 0"/>
        </g>
        <mask id="C">
            <g filter="url(#e)">
                <rect fill-opacity="0.199911" height="128" width="128"/>
            </g>
        </mask>
        <clipPath id="D">
            <rect height="152" width="192"/>
        </clipPath>
        <g id="E" clip-path="url(#D)">
            <path d="m 97.234375 98.910156 c 0 1.5 -0.371094 2.839844 -0.867187 3.691406 c -0.492188 0.851563 -0.972657 1.097657 -1.285157 1.097657 v 3 c 1.707031 0 3.050781 -1.164063 3.878907 -2.589844 c 0.828124 -1.425781 1.273437 -3.226563 1.273437 -5.199219 z m 4.566406 0 c 0 1.972656 0.445313 3.773438 1.273438 5.199219 s 2.175781 2.589844 3.882812 2.589844 v -3 c -0.3125 0 -0.792969 -0.246094 -1.289062 -1.097657 c -0.492188 -0.851562 -0.867188 -2.191406 -0.867188 -3.691406 z m -6.71875 8.960938 v 3 c 0.3125 0 0.792969 0.246094 1.285157 1.097656 c 0.496093 0.851562 0.867187 2.191406 0.867187 3.691406 h 3 c 0 -1.972656 -0.445313 -3.777344 -1.273437 -5.199218 c -0.828126 -1.425782 -2.171876 -2.589844 -3.878907 -2.589844 z m 11.875 0 c -1.707031 0 -3.054687 1.164062 -3.882812 2.589844 c -0.828125 1.421874 -1.273438 3.226562 -1.273438 5.199218 h 3 c 0 -1.5 0.375 -2.839844 0.867188 -3.691406 c 0.496093 -0.851562 0.976562 -1.097656 1.289062 -1.097656 z m 0 0"/>
        </g>
        <clipPath id="F">
            <rect height="128" width="128"/>
        </clipPath>
        <clipPath id="G">
            <rect height="128" width="128"/>
        </clipPath>
        <mask id="H">
            <g clip-path="url(#G)" filter="url(#e)">
                <g clip-path="url(#F)">
                    <path d="m 20 49.683594 h 88 c 4.417969 0 8 3.582031 8 8 v 50.316406 c 0 4.417969 -3.582031 8 -8 8 h -88 c -4.417969 0 -8 -3.582031 -8 -8 v -50.316406 c 0 -4.417969 3.582031 -8 8 -8 z m 0 0" fill="url(#a)"/>
                    <path d="m 12 49.683594 v 30.183594 c 0 4.503906 3.566406 8.132812 8 8.132812 h 88 c 4.433594 0 8 -3.628906 8 -8.132812 v -30.183594 z m 0 0" fill="#b5835a"/>
                    <path d="m 23.039062 44.121094 h 81.921876 v 62.035156 c -6.6875 1.578125 -12.429688 4.410156 -30.960938 4.066406 c -18.53125 -0.339844 -28.132812 -7.8125 -50.960938 -3 z m 0 0" fill-opacity="0.192157"/>
                    <path d="m 20 8 c -4.433594 0 -8 3.566406 -8 8 v 29.683594 h 11.039062 v -26.644532 h 81.921876 v 26.644532 h 11.039062 v -29.683594 c 0 -4.433594 -3.566406 -8 -8 -8 z m 0 0" fill="url(#b)"/>
                    <path d="m 23.039062 41.898438 h 81.921876 v 62.035156 c -6.6875 1.574218 -12.429688 4.410156 -30.960938 4.066406 s -28.132812 -7.8125 -50.960938 -3 z m 0 0" fill="url(#c)"/>
                    <path d="m 23.039062 81.789062 h 81.921876 v 11.15625 h -81.921876 z m 0 0" fill="url(#d)"/>
                    <use mask="url(#n)" transform="matrix(1 0 0 1 -8 -16)" xlink:href="#p"/>
                    <use mask="url(#q)" transform="matrix(1 0 0 1 -8 -16)" xlink:href="#s"/>
                    <use mask="url(#t)" transform="matrix(1 0 0 1 -8 -16)" xlink:href="#v"/>
                    <use mask="url(#w)" transform="matrix(1 0 0 1 -8 -16)" xlink:href="#y"/>
                    <use mask="url(#z)" transform="matrix(1 0 0 1 -8 -16)" xlink:href="#B"/>
                    <use mask="url(#C)" transform="matrix(1 0 0 1 -8 -16)" xlink:href="#E"/>
                    <path d="m 32 23 h 1 v 27 h -1 z m 0 0" fill="#deddda"/>
                    <path d="m 40 23 h 1 v 27 h -1 z m 0 0" fill="#deddda"/>
                    <path d="m 48 23 h 1 v 27 h -1 z m 0 0" fill="#deddda"/>
                    <path d="m 64 23.039062 h 1 v 27 h -1 z m 0 0" fill="#deddda"/>
                    <path d="m 72 23 h 1 v 27 h -1 z m 0 0" fill="#deddda"/>
                    <path d="m 88 23 h 1 v 27 h -1 z m 0 0" fill="#deddda"/>
                    <path d="m 80 23 h 1 v 27 h -1 z m 0 0" fill="#deddda"/>
                    <path d="m 20 12 c -4.433594 0 -8 3.566406 -8 8 v 30 h 11.039062 v -26.960938 h 81.921876 v 26.960938 h 11.078124 l -0.039062 -30 c -0.007812 -4.433594 -3.566406 -8 -8 -8 z m 0 0" fill="#986a44"/>
                    <path d="m 23.039062 61.605469 h 81.921876 v 7.394531 h -81.921876 z m 0 0" fill-opacity="0.176471"/>
                    <path d="m 16 60.671875 v 8.328125 h 7.039062 v -2 h 81.921876 v 2 h 7.039062 v -8.328125 z m 0 0" fill="url(#l)"/>
                    <path d="m 16 60 h 96 v 4 h -96 z m 0 0" fill="url(#m)"/>
                    <path d="m 56 23 h 1 v 27 h -1 z m 0 0" fill="#deddda"/>
                    <path d="m 96 23 h 1 v 27 h -1 z m 0 0" fill="#deddda"/>
                </g>
            </g>
        </mask>
        <mask id="I">
            <g filter="url(#e)">
                <rect fill-opacity="0.8" height="128" width="128"/>
            </g>
        </mask>
        <linearGradient id="J" gradientTransform="matrix(0 0.37 -0.98462 0 295.38501 -30.360001)" gradientUnits="userSpaceOnUse" x1="300" x2="428" y1="235" y2="235">
            <stop offset="0" stop-color="#f9f06b"/>
            <stop offset="1" stop-color="#f5c211"/>
        </linearGradient>
        <clipPath id="K">
            <rect height="128" width="128"/>
        </clipPath>
        <clipPath id="L">
            <rect height="128" width="128"/>
        </clipPath>
    </defs>
    <path d="m 20 49.683594 h 88 c 4.417969 0 8 3.582031 8 8 v 50.316406 c 0 4.417969 -3.582031 8 -8 8 h -88 c -4.417969 0 -8 -3.582031 -8 -8 v -50.316406 c 0 -4.417969 3.582031 -8 8 -8 z m 0 0" fill="url(#a)"/>
    <path d="m 12 49.683594 v 30.183594 c 0 4.503906 3.566406 8.132812 8 8.132812 h 88 c 4.433594 0 8 -3.628906 8 -8.132812 v -30.183594 z m 0 0" fill="#b5835a"/>
    <path d="m 23.039062 44.121094 h 81.921876 v 62.035156 c -6.6875 1.578125 -12.429688 4.410156 -30.960938 4.066406 c -18.53125 -0.339844 -28.132812 -7.8125 -50.960938 -3 z m 0 0" fill-opacity="0.192157"/>
    <path d="m 20 8 c -4.433594 0 -8 3.566406 -8 8 v 29.683594 h 11.039062 v -26.644532 h 81.921876 v 26.644532 h 11.039062 v -29.683594 c 0 -4.433594 -3.566406 -8 -8 -8 z m 0 0" fill="url(#b)"/>
    <path d="m 23.039062 41.898438 h 81.921876 v 62.035156 c -6.6875 1.574218 -12.429688 4.410156 -30.960938 4.066406 s -28.132812 -7.8125 -50.960938 -3 z m 0 0" fill="url(#c)"/>
    <path d="m 23.039062 81.789062 h 81.921876 v 11.15625 h -81.921876 z m 0 0" fill="url(#d)"/>
    <use mask="url(#f)" transform="matrix(1 0 0 1 -8 -16)" xlink:href="#p"/>
    <use mask="url(#g)" transform="matrix(1 0 0 1 -8 -16)" xlink:href="#s"/>
    <use mask="url(#h)" transform="matrix(1 0 0 1 -8 -16)" xlink:href="#v"/>
    <use mask="url(#i)" transform="matrix(1 0 0 1 -8 -16)" xlink:href="#y"/>
    <use mask="url(#j)" transform="matrix(1 0 0 1 -8 -16)" xlink:href="#B"/>
    <use mask="url(#k)" transform="matrix(1 0 0 1 -8 -16)" xlink:href="#E"/>
    <g fill="#deddda">
        <path d="m 32 23 h 1 v 27 h -1 z m 0 0"/>
        <path d="m 40 23 h 1 v 27 h -1 z m 0 0"/>
        <path d="m 48 23 h 1 v 27 h -1 z m 0 0"/>
        <path d="m 64 23.039062 h 1 v 27 h -1 z m 0 0"/>
        <path d="m 72 23 h 1 v 27 h -1 z m 0 0"/>
        <path d="m 88 23 h 1 v 27 h -1 z m 0 0"/>
        <path d="m 80 23 h 1 v 27 h -1 z m 0 0"/>
    </g>
    <path d="m 20 12 c -4.433594 0 -8 3.566406 -8 8 v 30 h 11.039062 v -26.960938 h 81.921876 v 26.960938 h 11.078124 l -0.039062 -30 c -0.007812 -4.433594 -3.566406 -8 -8 -8 z m 0 0" fill="#986a44"/>
    <path d="m 23.039062 61.605469 h 81.921876 v 7.394531 h -81.921876 z m 0 0" fill-opacity="0.176471"/>
    <path d="m 16 60.671875 v 8.328125 h 7.039062 v -2 h 81.921876 v 2 h 7.039062 v -8.328125 z m 0 0" fill="url(#l)"/>
    <path d="m 16 60 h 96 v 4 h -96 z m 0 0" fill="url(#m)"/>
    <path d="m 56 23 h 1 v 27 h -1 z m 0 0" fill="#deddda"/>
    <path d="m 96 23 h 1 v 27 h -1 z m 0 0" fill="#deddda"/>
    <g clip-path="url(#L)" mask="url(#H)">
        <g clip-path="url(#K)" mask="url(#I)">
            <path d="m 128 80.640625 v 47.359375 h -128 v -47.359375 z m 0 0" fill="url(#J)"/>
            <path d="m 13.308594 80.640625 l 47.355468 47.359375 h 21.214844 l -47.359375 -47.359375 z m 42.421875 0 l 47.363281 47.359375 h 21.214844 l -47.363282 -47.359375 z m 42.429687 0 l 29.839844 29.839844 v -21.210938 l -8.628906 -8.628906 z m -98.160156 7.90625 v 21.214844 l 18.238281 18.238281 h 21.214844 z m 0 0"/>
        </g>
    </g>
</svg>
